%YAML 1.1
%TAG !u! tag:unity3d.com,2011:
--- !u!74 &7400000
AnimationClip:
  m_ObjectHideFlags: 0
  m_CorrespondingSourceObject: {fileID: 0}
  m_PrefabInstance: {fileID: 0}
  m_PrefabAsset: {fileID: 0}
  m_Name: Player_Walk
  serializedVersion: 6
  m_Legacy: 0
  m_Compressed: 0
  m_UseHighQualityCurve: 1
  m_RotationCurves: []
  m_CompressedRotationCurves: []
  m_EulerCurves: []
  m_PositionCurves: []
  m_ScaleCurves: []
  m_FloatCurves: []
  m_PPtrCurves:
  - curve:
    - time: 0
      value: {fileID: 21300000, guid: 651e356600efc434b9a187ee25e35dbb, type: 3}
    - time: 0.05
      value: {fileID: 21300000, guid: 86f6491efe844274b8ef286df4b583cc, type: 3}
    - time: 0.1
      value: {fileID: 21300000, guid: 2581bdf06bfc22d4284ee18dceca1bc0, type: 3}
    - time: 0.15
      value: {fileID: 21300000, guid: 2fe62e84e6043c046b404594194c60ad, type: 3}
    - time: 0.2
      value: {fileID: 21300000, guid: de7328b83156f984995da56ed336e16b, type: 3}
    - time: 0.25
      value: {fileID: 21300000, guid: 4adc5cb3a8b3a824284ab01e0c625ce3, type: 3}
    - time: 0.3
      value: {fileID: 21300000, guid: 8509b4a08a3beca4092ecd45df5dc665, type: 3}
    - time: 0.35
      value: {fileID: 21300000, guid: c2c4e8b8c495c2044b225541d6b8ac70, type: 3}
    - time: 0.4
      value: {fileID: 21300000, guid: c3dd03d53335688448726efc4109ff3d, type: 3}
    - time: 0.45
      value: {fileID: 21300000, guid: 082d668b264c3ae45ad5e1b6e4776010, type: 3}
    - time: 0.5
      value: {fileID: 21300000, guid: f79f1bf489cddb64996de9786d1fc691, type: 3}
    - time: 0.55
      value: {fileID: 21300000, guid: 0c593658efa6d1e46ab506c23d633016, type: 3}
    - time: 0.6
      value: {fileID: 21300000, guid: 01816b1f23503b04e8b64bebbbfcd62d, type: 3}
    - time: 0.65
      value: {fileID: 21300000, guid: d3b096e357eaea143a90352e2923cae0, type: 3}
    - time: 0.7
      value: {fileID: 21300000, guid: 4d43276bb6880a748838f325cb85bfd9, type: 3}
    - time: 0.75
      value: {fileID: 21300000, guid: 3ef9ace287d65b34797fcfab6541ca6d, type: 3}
    - time: 0.8
      value: {fileID: 21300000, guid: a16a629a7ef13924a90d2f89fc10f28f, type: 3}
    - time: 0.85
      value: {fileID: 21300000, guid: c5e22c3ec14508745bf9b56947e028f4, type: 3}
    attribute: m_Sprite
    path: 
    classID: 212
    script: {fileID: 0}
  m_SampleRate: 20
  m_WrapMode: 0
  m_Bounds:
    m_Center: {x: 0, y: 0, z: 0}
    m_Extent: {x: 0, y: 0, z: 0}
  m_ClipBindingConstant:
    genericBindings:
    - serializedVersion: 2
      path: 0
      attribute: 0
      script: {fileID: 0}
      typeID: 212
      customType: 23
      isPPtrCurve: 1
    pptrCurveMapping:
    - {fileID: 21300000, guid: 651e356600efc434b9a187ee25e35dbb, type: 3}
    - {fileID: 21300000, guid: 86f6491efe844274b8ef286df4b583cc, type: 3}
    - {fileID: 21300000, guid: 2581bdf06bfc22d4284ee18dceca1bc0, type: 3}
    - {fileID: 21300000, guid: 2fe62e84e6043c046b404594194c60ad, type: 3}
    - {fileID: 21300000, guid: de7328b83156f984995da56ed336e16b, type: 3}
    - {fileID: 21300000, guid: 4adc5cb3a8b3a824284ab01e0c625ce3, type: 3}
    - {fileID: 21300000, guid: 8509b4a08a3beca4092ecd45df5dc665, type: 3}
    - {fileID: 21300000, guid: c2c4e8b8c495c2044b225541d6b8ac70, type: 3}
    - {fileID: 21300000, guid: c3dd03d53335688448726efc4109ff3d, type: 3}
    - {fileID: 21300000, guid: 082d668b264c3ae45ad5e1b6e4776010, type: 3}
    - {fileID: 21300000, guid: f79f1bf489cddb64996de9786d1fc691, type: 3}
    - {fileID: 21300000, guid: 0c593658efa6d1e46ab506c23d633016, type: 3}
    - {fileID: 21300000, guid: 01816b1f23503b04e8b64bebbbfcd62d, type: 3}
    - {fileID: 21300000, guid: d3b096e357eaea143a90352e2923cae0, type: 3}
    - {fileID: 21300000, guid: 4d43276bb6880a748838f325cb85bfd9, type: 3}
    - {fileID: 21300000, guid: 3ef9ace287d65b34797fcfab6541ca6d, type: 3}
    - {fileID: 21300000, guid: a16a629a7ef13924a90d2f89fc10f28f, type: 3}
    - {fileID: 21300000, guid: c5e22c3ec14508745bf9b56947e028f4, type: 3}
  m_AnimationClipSettings:
    serializedVersion: 2
    m_AdditiveReferencePoseClip: {fileID: 0}
    m_AdditiveReferencePoseTime: 0
    m_StartTime: 0
    m_StopTime: 0.90000004
    m_OrientationOffsetY: 0
    m_Level: 0
    m_CycleOffset: 0
    m_HasAdditiveReferencePose: 0
    m_LoopTime: 1
    m_LoopBlend: 0
    m_LoopBlendOrientation: 0
    m_LoopBlendPositionY: 0
    m_LoopBlendPositionXZ: 0
    m_KeepOriginalOrientation: 0
    m_KeepOriginalPositionY: 1
    m_KeepOriginalPositionXZ: 0
    m_HeightFromFeet: 0
    m_Mirror: 0
  m_EditorCurves: []
  m_EulerEditorCurves: []
  m_HasGenericRootTransform: 0
  m_HasMotionFloatCurves: 0
  m_Events: []
