%YAML 1.1
%TAG !u! tag:unity3d.com,2011:
--- !u!114 &11400000
MonoBehaviour:
  m_ObjectHideFlags: 0
  m_CorrespondingSourceObject: {fileID: 0}
  m_PrefabInstance: {fileID: 0}
  m_PrefabAsset: {fileID: 0}
  m_GameObject: {fileID: 0}
  m_Enabled: 1
  m_EditorHideFlags: 0
  m_Script: {fileID: 11500000, guid: 087bcdf19eb84382896f808dced23c54, type: 3}
  m_Name: Gas Minner
  m_EditorClassIdentifier: 
  buildGasCost: 0
  buildMineralsCost: 125
  buildHours: 0
  buildMinutes: 2
  buildSeconds: 0
  buildingName: GasMiner
  prefabBuilding: {fileID: 70014177297938580, guid: 0b15ae230dc933f47bcc8928a4ae0000,
    type: 3}
  material: {fileID: 2100000, guid: 397ca046cd57bf54ea3281d96937b3ce, type: 2}
  buildingLevel: 1
  miningValue: 10
  minerType: 0
  miningHours: 0
  miningMinutes: 0
  miningSeconds: 10
