%YAML 1.1
%TAG !u! tag:unity3d.com,2011:
--- !u!114 &11400000
MonoBehaviour:
  m_ObjectHideFlags: 0
  m_CorrespondingSourceObject: {fileID: 0}
  m_PrefabInstance: {fileID: 0}
  m_PrefabAsset: {fileID: 0}
  m_GameObject: {fileID: 0}
  m_Enabled: 1
  m_EditorHideFlags: 0
  m_Script: {fileID: 11500000, guid: a6a2e30b33d04ef2b1f4b6c0930b34e7, type: 3}
  m_Name: Buildings Collection
  m_EditorClassIdentifier: 
  minerBuildingSettings:
  - {fileID: 11400000, guid: eae0587605d1d8842928779ae64c8f6d, type: 2}
  - {fileID: 11400000, guid: f3661f22e490af045a016ab15cea503a, type: 2}
  storageBuildingSettings:
  - {fileID: 11400000, guid: b58cfb504d084804392a2f811c2c0ad1, type: 2}
  - {fileID: 11400000, guid: defa7736d27f25a4c904e4cb3f3c739e, type: 2}
