%YAML 1.1
%TAG !u! tag:unity3d.com,2011:
--- !u!74 &7400000
AnimationClip:
  m_ObjectHideFlags: 0
  m_CorrespondingSourceObject: {fileID: 0}
  m_PrefabInstance: {fileID: 0}
  m_PrefabAsset: {fileID: 0}
  m_Name: Enemy_Attack
  serializedVersion: 6
  m_Legacy: 0
  m_Compressed: 0
  m_UseHighQualityCurve: 1
  m_RotationCurves: []
  m_CompressedRotationCurves: []
  m_EulerCurves: []
  m_PositionCurves: []
  m_ScaleCurves: []
  m_FloatCurves:
  - curve:
      serializedVersion: 2
      m_Curve:
      - serializedVersion: 3
        time: 0
        value: 0.99215686
        inSlope: 0
        outSlope: 0
        tangentMode: 136
        weightedMode: 0
        inWeight: 0.33333334
        outWeight: 0.33333334
      - serializedVersion: 3
        time: 0.64
        value: 0.99215686
        inSlope: 0
        outSlope: 0
        tangentMode: 136
        weightedMode: 0
        inWeight: 0.33333334
        outWeight: 0.33333334
      m_PreInfinity: 2
      m_PostInfinity: 2
      m_RotationOrder: 4
    attribute: m_Color.a
    path: 
    classID: 212
    script: {fileID: 0}
  m_PPtrCurves:
  - curve:
    - time: 0
      value: {fileID: 21300000, guid: ea54d4fbd6eb66647bcc1dac10f06d7b, type: 3}
    - time: 0.04
      value: {fileID: 21300000, guid: c7bbb51ea9086e642bff743e2b1e2d3a, type: 3}
    - time: 0.08
      value: {fileID: 21300000, guid: 86a1ac54bd520e94eb790082d48cd1e0, type: 3}
    - time: 0.12
      value: {fileID: 21300000, guid: 68a4c31d6a846754e83d28779783a96c, type: 3}
    - time: 0.16
      value: {fileID: 21300000, guid: c647eb92ef98ed94eaa706e92ae6e1ff, type: 3}
    - time: 0.2
      value: {fileID: 21300000, guid: 6aeb243b1566f9f429cd3aa87ad1f2ac, type: 3}
    - time: 0.24
      value: {fileID: 21300000, guid: 565e56f1f6a160e47964ee905c96aed4, type: 3}
    - time: 0.28
      value: {fileID: 21300000, guid: 9918acf075312d046a6f9f0aef0db6da, type: 3}
    - time: 0.32
      value: {fileID: 21300000, guid: 316eaa5f048443e4da7404910497675e, type: 3}
    - time: 0.36
      value: {fileID: 21300000, guid: 136bddfe517699e4caee483d141044ed, type: 3}
    - time: 0.4
      value: {fileID: 21300000, guid: ed9d8218930a9a14c91cb9bdfde6d24b, type: 3}
    - time: 0.44
      value: {fileID: 21300000, guid: 9e053a687abb7bc4f8b8eaacfe0ad6f3, type: 3}
    - time: 0.48
      value: {fileID: 21300000, guid: c72be4c9b8bba8841b715b24415bd5b7, type: 3}
    - time: 0.52
      value: {fileID: 21300000, guid: e8a72bed005c16b4db762112479aa9e5, type: 3}
    - time: 0.56
      value: {fileID: 21300000, guid: fa3c9ef1e981d9b42bcd884e6c61f825, type: 3}
    - time: 0.6
      value: {fileID: 21300000, guid: 4b9c527d8ccd05647901f55b5ea83a9c, type: 3}
    - time: 0.64
      value: {fileID: 21300000, guid: 9b84f47592a00af499a3cf6a9349c6c3, type: 3}
    - time: 0.68
      value: {fileID: 21300000, guid: c4a4516313ad00a468db8afaafa18067, type: 3}
    - time: 0.72
      value: {fileID: 21300000, guid: 12494e497a7f81c4da8a71f0b22d8f7e, type: 3}
    - time: 0.76
      value: {fileID: 21300000, guid: 19682362fe7181b4d8324778152bb6f0, type: 3}
    - time: 0.8
      value: {fileID: 21300000, guid: c39a336d206f586439684b1d7c85a24f, type: 3}
    - time: 0.84
      value: {fileID: 21300000, guid: aa2c5a08254d551428c5000471eae16c, type: 3}
    attribute: m_Sprite
    path: 
    classID: 212
    script: {fileID: 0}
  m_SampleRate: 25
  m_WrapMode: 0
  m_Bounds:
    m_Center: {x: 0, y: 0, z: 0}
    m_Extent: {x: 0, y: 0, z: 0}
  m_ClipBindingConstant:
    genericBindings:
    - serializedVersion: 2
      path: 0
      attribute: 0
      script: {fileID: 0}
      typeID: 212
      customType: 23
      isPPtrCurve: 1
    - serializedVersion: 2
      path: 0
      attribute: 304273561
      script: {fileID: 0}
      typeID: 212
      customType: 0
      isPPtrCurve: 0
    pptrCurveMapping:
    - {fileID: 21300000, guid: ea54d4fbd6eb66647bcc1dac10f06d7b, type: 3}
    - {fileID: 21300000, guid: c7bbb51ea9086e642bff743e2b1e2d3a, type: 3}
    - {fileID: 21300000, guid: 86a1ac54bd520e94eb790082d48cd1e0, type: 3}
    - {fileID: 21300000, guid: 68a4c31d6a846754e83d28779783a96c, type: 3}
    - {fileID: 21300000, guid: c647eb92ef98ed94eaa706e92ae6e1ff, type: 3}
    - {fileID: 21300000, guid: 6aeb243b1566f9f429cd3aa87ad1f2ac, type: 3}
    - {fileID: 21300000, guid: 565e56f1f6a160e47964ee905c96aed4, type: 3}
    - {fileID: 21300000, guid: 9918acf075312d046a6f9f0aef0db6da, type: 3}
    - {fileID: 21300000, guid: 316eaa5f048443e4da7404910497675e, type: 3}
    - {fileID: 21300000, guid: 136bddfe517699e4caee483d141044ed, type: 3}
    - {fileID: 21300000, guid: ed9d8218930a9a14c91cb9bdfde6d24b, type: 3}
    - {fileID: 21300000, guid: 9e053a687abb7bc4f8b8eaacfe0ad6f3, type: 3}
    - {fileID: 21300000, guid: c72be4c9b8bba8841b715b24415bd5b7, type: 3}
    - {fileID: 21300000, guid: e8a72bed005c16b4db762112479aa9e5, type: 3}
    - {fileID: 21300000, guid: fa3c9ef1e981d9b42bcd884e6c61f825, type: 3}
    - {fileID: 21300000, guid: 4b9c527d8ccd05647901f55b5ea83a9c, type: 3}
    - {fileID: 21300000, guid: 9b84f47592a00af499a3cf6a9349c6c3, type: 3}
    - {fileID: 21300000, guid: c4a4516313ad00a468db8afaafa18067, type: 3}
    - {fileID: 21300000, guid: 12494e497a7f81c4da8a71f0b22d8f7e, type: 3}
    - {fileID: 21300000, guid: 19682362fe7181b4d8324778152bb6f0, type: 3}
    - {fileID: 21300000, guid: c39a336d206f586439684b1d7c85a24f, type: 3}
    - {fileID: 21300000, guid: aa2c5a08254d551428c5000471eae16c, type: 3}
  m_AnimationClipSettings:
    serializedVersion: 2
    m_AdditiveReferencePoseClip: {fileID: 0}
    m_AdditiveReferencePoseTime: 0
    m_StartTime: 0
    m_StopTime: 0.88
    m_OrientationOffsetY: 0
    m_Level: 0
    m_CycleOffset: 0
    m_HasAdditiveReferencePose: 0
    m_LoopTime: 1
    m_LoopBlend: 0
    m_LoopBlendOrientation: 0
    m_LoopBlendPositionY: 0
    m_LoopBlendPositionXZ: 0
    m_KeepOriginalOrientation: 0
    m_KeepOriginalPositionY: 1
    m_KeepOriginalPositionXZ: 0
    m_HeightFromFeet: 0
    m_Mirror: 0
  m_EditorCurves:
  - curve:
      serializedVersion: 2
      m_Curve:
      - serializedVersion: 3
        time: 0
        value: 0.99215686
        inSlope: 0
        outSlope: 0
        tangentMode: 136
        weightedMode: 0
        inWeight: 0.33333334
        outWeight: 0.33333334
      - serializedVersion: 3
        time: 0.64
        value: 0.99215686
        inSlope: 0
        outSlope: 0
        tangentMode: 136
        weightedMode: 0
        inWeight: 0.33333334
        outWeight: 0.33333334
      m_PreInfinity: 2
      m_PostInfinity: 2
      m_RotationOrder: 4
    attribute: m_Color.a
    path: 
    classID: 212
    script: {fileID: 0}
  m_EulerEditorCurves: []
  m_HasGenericRootTransform: 0
  m_HasMotionFloatCurves: 0
  m_Events: []
